ExpImp,Countreis,CountriesJA,ISO_A3,1979,1980,1981,1982,1983,1984,1985,1986,1987,1988,1989,1990,1991,1992,1993,1994,1995,1996,1997,1998,1999,2000,2001,2002,2003,2004,2005,2006,2007,2008,2009,2010,2011,2012,2013,2014,2015,2016,2017,2018
Exp,,,,6603719372,8258499849,8775170410,8889534133,9483048503,10525916007,11046034740,8758078506,8942242031,9867291711,11333921120,12884166167,14182271062,14816974756,15063466433,16150207666,18081261952,19684844080,21379979144,17560334596,17694215285,21254224891,19732177742,22438672149,25318318966,29636794251,31795582318,35775696168,40400067437,39966194766,29338319950,37827410001,36685874713,34854959650,37866568950,39518173902,40328682086,37106951177,42920017324,44735606413
Imp,,,,6431107249,8271575136,8223085424,8804968265,7893289706,9009539815,8867873190,6034082030,6744753143,7459554006,8896314927,9733164399,9971058772,9581179936,9176480515,9931550593,11566108639,14225124705,15163248265,13588390940,13970295288,17062689817,17987093519,18358445037,19726810123,22224196197,25278703510,29360101474,31563942428,32033895972,22989268159,27511140597,30391338304,31305706045,35971514630,38618131693,38358492515,33198806553,37026100639,39217775900
Exp,R KOREA,大韓民国,KOR,1359726296,1225050667,1246287989,1213902422,1427033801,1711424415,1693657799,1760684903,1921604922,1977785123,2280541278,2517998068,2704253735,2253298092,2123877529,2489405739,2927822333,3192333170,3153238334,2004542479,2606234190,3308751342,3071870837,3572438503,4022469201,4785101348,5145987430,5848894531,6384033197,6168285159,4409728690,5460192548,5269143087,4911269560,5511828490,5455929552,5326569268,5020407925,5975215940,5792562476
Imp,R KOREA,大韓民国,KOR,731651273,681218129,748073912,808272300,799576155,1000951009,977328916,886185438,1170222565,1514927772,1787766008,1689565896,1662902675,1465878984,1297322248,1379824763,1622179320,1735328829,1762757028,1577249772,1824285840,2204702798,2088355890,1936786939,2071181525,2383405066,2695287998,3178253144,3209558491,3052017308,2051039162,2503979070,3170051483,3233703622,3493116110,3531341947,3243864001,2722051874,3152745083,3550463916
Exp,N KOREA,北朝鮮,PRK,61945691,84946420,63625019,78071510,77620655,60317360,59049551,31039362,30842493,30593201,27204597,25381712,30245795,28282862,24223694,17400145,23731600,24694659,21630387,22782826,16650998,22279274,129509622,16548374,10609254,9578790,6882812,5082841,1070938,792577,262210,0,0,0,0,0,0,0,0,0
Imp,N KOREA,北朝鮮,PRK,32709660,40977411,30670410,37510497,29955452,34299772,43200874,29272806,34885998,41588737,41115107,43296175,38284300,32675604,27942808,32728663,32107865,31702683,36535244,28703607,22844519,27695413,27398069,29402126,20195352,17740671,14536016,9031900,0,0,0,0,0,0,0,0,0,0,0,0
Exp,CHINA,中華人民共和国,CHN,803876504,1140786728,1114600911,871722961,1167551111,1720802827,2991151356,1666510571,1198213308,1213931260,1164719139,883509615,1156768176,1510321365,1911297438,1913705255,2061959713,2382363189,2630720664,2620905420,2657428102,3274447888,3763723102,4979795581,6635481534,7994233171,8836853027,10793696067,12838997782,12949889116,10235595660,13085564799,12902159758,11509143901,12625239116,13381487410,13223350314,12361421736,14889705986,15897740448
Imp,CHINA,中華人民共和国,CHN,647743368,977794077,1170116922,1326521392,1209149338,1411270770,1552364940,965838503,1075383342,1264213819,1534282588,1729858399,1913713492,2144776528,2278025688,2811395199,3380881798,4399676006,5061673266,4844134624,4875384565,5941358135,7026676502,7727792563,8731138638,10198963424,11975448971,13784370438,15035468305,14830405945,11435984200,13412960198,14641945454,15038787251,17659992158,19176450101,19428811556,17018987595,18459258807,19193652551
Exp,TAIWAN,台湾,TWN,953130390,1168681234,1188293791,1055347122,1208734431,1417547203,1204790427,1312441695,1644838978,1838997658,2122319780,2234470046,2459762520,2678790302,2456399300,2434377861,2709585709,2825133378,3335154464,3340382312,3276251692,3874041638,2942227051,3281187639,3609889729,4542333238,4809203354,5131333558,5274349945,4781552552,3398677111,4594237993,4057747369,3673195925,4060803071,4231602289,4472530718,4267741323,4557789612,4679208154
Imp,TAIWAN,台湾,TWN,539428357,522144185,555687856,604661420,623086176,757668879,810867321,786934419,1034144843,1119953160,1231094732,1231527375,1280556891,1199647135,1077818220,1099974686,1347034752,1627656584,1510932089,1336327404,1455915472,1930161117,1722642821,1698925871,1655699910,1804658656,1994202879,2365207906,2334483646,2258212862,1710710487,2024607110,1851857502,1920591238,2315306750,2567587282,2817359026,2495306140,2847768441,2997513887
Exp,MONGOL,モンゴル,MNG,3197819,1036592,145281,451505,652675,379626,473587,469696,286339,544705,1001135,2113150,6231584,4747372,2160172,2519806,4001141,6485505,4746702,6135585,6476900,3069017,4545833,3863840,5215875,8004080,8099139,12350481,18102507,23838317,9937245,13971383,25688741,27525358,29303877,34569522,30478925,30460219,40052643,57154001
Imp,MONGOL,モンゴル,MNG,256156,283344,832505,1993089,472833,2462883,1848716,1181727,1918519,3368126,5278891,2591617,2892257,5378649,2918444,5849802,8454587,9710399,13292628,8131052,1459782,1039341,1308728,926952,793228,892157,722097,977667,1905808,3752660,678349,2009397,1404841,2059979,1861193,1808629,6511426,1901154,4255456,3576858
Exp,HG KONG,香港,HKG,805608383,1076970109,1167772395,1170471615,1256533936,1556040269,1564926954,1205626140,1287300081,1500025886,1581823563,1887543310,2197938160,2625699989,2524883930,2632228104,2599570174,2759967774,3297761788,2949191213,2507212795,2929696240,2826044211,3176359310,3455171899,3830868452,3968509689,4239020124,4571744768,4177753049,2975131481,3704778031,3419760618,3276185293,3651313423,4039306717,4235996888,3651500611,3974065124,3832339073
Imp,HG KONG,香港,HKG,144777738,129033293,147995393,155505699,159297846,199712809,183317391,179862390,226514336,270464148,305814619,314593027,278262225,259052958,221420438,219336199,257045201,280098772,272145765,226260624,203248910,179713285,176970107,177985789,155844009,175796257,173439370,176823759,170354097,161309561,102940155,133365633,122979175,121420448,156438954,176547285,227434576,212314456,204604276,234660365
Exp,VIETNAM,ベトナム,VNM,25299717,25208221,23975605,23236983,28248038,28130843,35269010,31807085,25545210,24779569,23403149,31150277,29181325,57009327,70670257,65892775,86439312,123964619,154877875,173802006,185086959,212870017,216383676,266342981,303346574,343830698,396368713,481507891,665896933,810211827,607825760,715558575,763795608,857307516,1029449261,1252797387,1516382224,1410631708,1688085573,1814163058
Imp,VIETNAM,ベトナム,VNM,10600862,11067167,8227574,8942637,8910525,12116871,15557855,14215232,20761957,25028977,47991435,84940568,89148516,110009806,118658242,137898341,161487441,219548311,264470665,228925523,223021932,284602039,316736449,316278342,358048596,417067631,501639159,615559275,719756852,941689453,649003278,715710904,919857136,1203414746,1388963350,1630722306,1832191268,1766089647,2079141765,2335236690
Exp,THAILND,タイ,THA,373705792,434871760,494471708,475821053,595677110,574514362,487606114,341416258,426922693,661001306,942238389,1315372602,1272305493,1311939238,1365299012,1502468162,1849931534,1987968589,1764365669,1222137194,1284800730,1469396525,1442488421,1648577351,1853751538,2192209838,2477668304,2664665184,3009336042,3051462985,2069704776,2993720855,2988514825,3488868038,3507233169,3319814095,3386296663,2974411190,3300429177,3562499224
Imp,THAILND,タイ,THA,255007253,256573936,233185023,257425952,242057894,245866896,246369837,234525871,260669328,352894312,493073841,599311997,707555133,753340540,723215768,837998085,949948072,1111154150,1157320883,1068173793,1008225528,1142345663,1260471635,1314593900,1375904883,1525285283,1717533685,1963890953,2153625138,2152279152,1495169246,1840012560,1953163026,1885687085,2150347855,2299526646,2471766476,2189660540,2550228480,2770728419
Exp,SNGAPOR,シンガポール,SGP,587771295,884950832,984232436,1084130131,1056722887,1091224613,924515588,769870340,870889081,1065508835,1272204549,1546624473,1646833867,1641470423,1844344223,2006073805,2157606915,2259585974,2449629807,1929645998,1854166741,2243914318,1786059044,1774535503,1715812862,1944866023,2034511559,2250193894,2566063488,2757576444,1933160212,2209099571,2170069498,1859370690,2047338675,2225235124,2402629538,2154627702,2540554370,2584088484
Imp,SNGAPOR,シンガポール,SGP,325549930,344962237,430473936,452612774,349155735,418958999,380793675,249294589,296847290,299648194,406088142,511957779,460401424,391812060,401340771,475166649,644341606,796740856,710083327,616287070,618188482,693624921,653683519,626767190,628793629,680185774,739062916,869620413,828941122,816559953,570494893,715213423,690941268,699540493,727370040,833905630,956576057,810954140,956471122,1075967161
Exp,MALYSIA,マレーシア,MYS,330734686,465126111,532583670,623593477,658753035,680370176,522642092,289235210,313631684,392064774,569443095,793093094,1028482315,1027703684,1069716180,1262539273,1573050897,1668419740,1755532021,1216121682,1264899072,1496626789,1337216737,1377609467,1301740885,1359295206,1382923464,1537033085,1769009562,1705414172,1200109591,1544629997,1496147340,1412732500,1487243535,1496672638,1452551889,1318286282,1431251533,1538662172
Imp,MALYSIA,マレーシア,MYS,714679711,791952354,642783522,748454579,743549307,1046643270,1034934763,660674000,694856625,602860639,701036957,779505971,871971891,832807186,851560208,841716065,991665678,1278511952,1375090579,1133201214,1241389531,1562725704,1561323914,1401350101,1458085859,1526265360,1619443899,1801185244,2046865000,2397623998,1558352140,1987447384,2425670636,2621313584,2901248276,3086669727,2601556803,1878059550,2161906873,2091021046
Exp,BRUNEI,ブルネイ,BRN,16524994,20058101,20642471,35444211,20381226,16916621,21305927,10205489,5814376,8577238,11546201,12359283,17312194,20092474,14253129,13690641,12217516,14373740,18007841,8041654,5984268,6065684,6760533,39799273,11207752,11677176,11533253,11785717,14457812,18737885,15183280,13103172,11406562,14978281,14855553,11307055,14555886,9070097,9520432,10964422
Imp,BRUNEI,ブルネイ,BRN,414526553,737957956,635612238,653468598,561837056,520886484,454278084,223474221,172509931,143110058,148765397,182825699,202365834,172287216,157857685,123240922,127313838,151499983,169934761,134580937,119500774,178286395,206113027,190035157,211632850,204509430,252472991,271758296,294320658,470078628,311118226,359808515,454296686,477943521,462933349,424418415,283450455,184869839,192662670,258607134
Exp,PHILPIN,フィリピン,PHL,353140850,382275651,424441491,447307387,414653870,255927388,223778856,184377150,205574051,222959008,328281776,362991156,357872539,445127673,536051168,603649827,667409032,914733047,1051252129,948198953,996864292,1105653851,995303065,1057667651,1041925278,1038199112,999564250,1047916827,1113870648,1034410461,767174761,968784360,894084582,945775882,944458319,1046057946,1148076727,1123019464,1247977229,1243163304
Imp,PHILPIN,フィリピン,PHL,345187498,445428518,380410607,389814088,310377920,335383111,300280672,207727935,196333437,262032954,282537771,312539703,317162028,296090300,264580797,271278772,326299821,492024707,606485035,578822536,603437039,776246984,778878672,818013729,815485639,892164188,850044337,925733190,1026232772,872469130,598279434,694780559,712066096,745479595,901122965,1076326706,1073825454,982913084,1096133485,1152432733
Exp,INDNSIA,インドネシア,IDN,467345045,780380133,905631520,1060486487,843430167,727701650,519855594,449207923,434657985,391108382,455737729,723941126,755004443,706134495,666801658,783408066,934642971,986013462,1230176274,560058811,551041093,817744699,777704011,779818152,830386780,981732734,1016850405,857768287,1064504960,1303572679,869687044,1394458642,1412321686,1618682693,1661795171,1560451939,1396293135,1230061948,1502173792,1743075438
Imp,INDNSIA,インドネシア,IDN,1936729922,3004360712,2916008856,2969385915,2474428445,2644313007,2431141853,1267147033,1226361305,1215934655,1513390973,1820744097,1720311644,1549599426,1393260643,1322002498,1335346075,1653174541,1769382962,1416286821,1429002373,1766187313,1805631914,1773997440,1905214742,2021887866,2298075996,2806867962,3116643816,3377989349,2037562372,2476178802,2715955512,2576390881,2812987215,2715557892,2390345904,1988856260,2230687657,2378912202
Exp,CAMBOD,カンボジア,KHM,180351,5628231,2400196,1329724,808037,1199669,403270,312171,159082,617511,509716,648154,891156,28404462,5504628,6478065,7239804,6141124,7054836,5843185,5720366,5602290,6123196,8747275,6304597,8635332,8619750,9519727,13046325,19081811,10500073,13956747,16364031,18708507,20480498,27082160,36569894,33308038,40167970,46611736
Imp,CAMBOD,カンボジア,KHM,67842,131471,144716,142584,98990,62801,92758,34614,94597,182046,321508,499587,740594,1193708,9171295,901173,685542,714198,1588876,2103720,3929188,5626925,8015991,9370558,10346254,10785180,11641912,13982772,16336306,12529944,13306830,18191247,24523048,32253206,56886410,81658924,117200397,130979813,141583133,177551384
Exp,LAOS,ラオス,LAO,2001741,2810956,1985731,2402246,3611547,1243257,2707822,2164599,2293688,2513179,3312595,2796389,2888629,3551643,4124600,3455828,2634197,4320232,3515942,2450675,2576035,2299715,1427677,2251878,1574197,1520467,2151522,2387221,4419661,6449052,7086303,5454933,6182932,10993710,11837838,14675677,12650605,12617674,13029609,14698441
Imp,LAOS,ラオス,LAO,2030161,1368609,836607,281471,563410,149628,335675,257698,223570,881890,1059017,673656,599593,1545078,1294642,3176800,2777023,2546101,2550611,2602394,1548092,1289480,843417,840730,857586,865342,887161,1433731,1409883,1871072,2515719,3303626,7749704,9857245,10457916,12173402,11786459,12545169,16761301,17190178
Exp,MYANMAR,ミャンマー,MMR,55253448,49206260,55319071,56841387,42655861,43090896,43703869,35893315,25342562,23383638,14424105,14478696,11052870,12130192,11116617,6897940,14668077,27607455,25592472,24063795,21141916,21037490,22695487,14464689,14254806,11344399,10132052,12070634,20602935,19498197,18807837,22927312,40046228,100350003,103180488,125893422,128924668,112461449,98766107,76568078
Imp,MYANMAR,ミャンマー,MMR,19445291,17526430,13978299,12062912,11104435,7598835,8454698,8241404,5015387,4134833,4668755,5998905,6655173,6154603,7858854,7742396,8734732,11184140,11938515,11717334,11507657,12875015,12398406,13736059,16075842,19445479,22473416,28608993,34680953,32662656,31838726,33788632,46980895,53623595,74064475,91037119,104581293,101745305,119594487,141484085
Exp,INDIA,インド,IND,169617311,207090263,263895301,348045589,339512479,276824428,377858460,353354479,284845146,266974051,276115891,247222337,205304249,188244373,169450417,208958702,238001096,264678693,267731487,314405830,275572311,267940001,233717502,233872169,276339827,329081873,388228393,518100263,723300159,818617627,591264523,791714814,882080563,845360207,838979712,860978902,981347399,889253193,993222115,1215276743
Imp,INDIA,インド,IND,228581345,232489593,231139352,277674435,268136748,267830121,285115398,222768098,223681352,230893422,270914133,300952261,295441399,258918465,254504515,272651282,274485310,309311170,322114976,284798452,255773787,284200211,269299420,261997308,252132684,282590401,352402440,471589832,490556723,544228009,347827245,498864193,543290468,558479787,690265975,739104804,588718414,509305559,599926627,607163282
Exp,PAKISTN,パキスタン,PAK,120052304,139800697,140266633,189358935,180527579,200700773,186297680,153269076,135994552,143831613,140943710,145444111,183337517,164055171,153202264,87340500,115400370,125810288,92273017,85572147,69771439,65230375,60862362,89597472,104386938,133991209,166877473,204714224,183200022,150989639,94664407,115307322,135254700,135002522,138955862,170784232,202765203,209765344,260581344,231562375
Imp,PAKISTN,パキスタン,PAK,44828994,48378422,48003821,58844871,62519817,56869310,92192821,59825121,71764928,70956955,80610562,77886279,87540544,67167664,55830496,56171269,55744092,62538201,58879836,40562448,32802025,27062661,26827626,18972018,15586992,18435735,15696019,24272119,28982958,45214636,22037360,30909911,36562938,34040529,46332171,35032041,31442002,28679174,48440357,38973892
Exp,SRILANK,スリランカ,LKA,34392959,53449821,50896186,56497650,68973547,60176560,65041240,48736712,36607486,36641776,40601634,45134849,39235728,45457668,43295681,46521142,40284955,43611072,50010788,62920569,49460678,55827415,32555401,35538688,43362384,36669987,39189844,49748342,46436004,38526281,19014929,55144305,75160546,36138134,56834016,96147111,141460536,76015712,98361379,138056315
Imp,SRILANK,スリランカ,LKA,18244042,12462741,15041447,17772235,16351195,18876796,18879853,15392292,13205078,14574315,16118966,19473473,17726155,19158548,18756765,19324294,21919281,29763593,32254877,29735375,19227970,24247852,24837139,20919874,22547830,21287122,19778131,24005477,24176445,21303451,17124197,19258710,21618483,22090185,28931857,30365749,32645809,26213098,28307122,30210937
Exp,MALDIVE,モルディブ,MDV,377797,879485,751872,570616,1563077,2451480,2960690,1195724,1884436,1385278,1212961,1462439,1655442,1106523,984540,1128479,710268,784834,917424,1172978,1018868,619039,425004,461494,638285,767144,1197504,2582954,1707705,1937792,595935,499133,2097444,817578,1208020,1430778,2145688,1862603,2262460,2769024
Imp,MALDIVE,モルディブ,MDV,699828,615956,644663,747767,207573,162363,861590,235072,183854,297217,145268,608994,699506,258002,131246,390263,346368,1051321,2487476,1218764,462215,468940,641939,2207044,1845724,2355410,2353860,2454873,1365498,604206,157403,142922,447307,398799,724084,1670194,1269935,523083,553889,350692
Exp,BANGLA,バングラデシュ,BGD,50481925,73289499,62321544,52332392,45548205,58011922,74216194,74674848,52080600,36266361,45981448,55038543,32648536,30366409,36064907,34230251,32632510,37658436,38541029,42115731,36696056,50919309,54242312,53442166,49350917,48628035,58405382,66688491,70298536,82714476,71106892,89571713,85544826,78634568,85348092,123318241,166314642,171893219,195337662,173017187
Imp,BANGLA,バングラデシュ,BGD,10428169,6347283,7650142,14405934,15366454,18661690,20101222,13799230,10598928,10959558,9496995,10334906,8919413,7844850,8208592,9264580,13675754,15622931,15690051,14905665,13007766,12631568,14015348,14052597,15239855,15304938,16770677,18553580,20510947,20754752,24665955,32842507,44800395,57345905,86928173,99138809,130790980,132187300,131012815,159397877
Exp,E TIMOR,東ティモール,TLS,32160,538,0,129799,65991,910,10223,6167,19113,2851,4244,97469,1197,0,0,1399,2457,5472,977,18768,619950,752694,287943,411957,242367,111102,310811,636170,791184,704453,538736,690630,778738,735423,472503,992345,596118,562056,686392,792681
Imp,E TIMOR,東ティモール,TLS,4093,13916,0,874,0,709,1325,0,0,1479,0,592,313,2777,2051,2178,1098,5850,71707,0,3059039,1570,0,5820,8717,25906,62798,1600894,2543828,14408797,4699727,3838318,1104321,7369098,716304,1991982,916447,111891,128987,102904
Exp,MACAO,マカオ,MAC,2419494,4059874,3473900,3935120,4709920,4479719,5516595,3453921,4331693,4829938,6107947,8577848,13170234,13142765,10563337,11611673,7572587,9016553,10034559,7903727,7320138,9652547,11081984,11530940,10139190,12181412,13494069,16425718,27432496,24855358,16866033,20012610,18192887,20935099,29024803,33330562,39985172,32703638,48114481,67292021
Imp,MACAO,マカオ,MAC,4407759,6160978,4886856,7966663,6814019,8406199,8759606,6751094,7782207,10069039,14204683,12697919,6559564,5087266,4132222,3051753,3274055,5111059,4054350,2997377,2372920,2483640,2622250,2495933,3080285,2964495,3288499,3189578,4119738,4548320,2615258,2775750,2808733,2471572,2756396,3353216,3431283,2991154,2530564,1196324
Exp,AFGNSTN,アフガニスタン,AFG,21970947,23172238,17396316,24070316,28671164,26490559,23127400,19868271,20469829,14449874,12933097,17465562,15632666,11020894,10250477,8295885,7917566,11406612,10636437,7916456,7558590,5551224,5431981,10449092,12081028,7135275,8437416,7933356,10537161,11962190,10569711,8482289,8887793,7961465,6107005,2845729,3037980,8716561,7785180,6561877
Imp,AFGNSTN,アフガニスタン,AFG,1418365,323905,182629,151202,55885,247953,508928,173171,397220,286381,282016,315845,401027,182625,169638,124666,95304,214172,1031532,154500,91203,52283,20719,200550,234213,114927,300138,70200,30327,75140,42574,38571,33752,27938,52563,47159,68427,45272,26535,98981
Exp,NEPAL,ネパール,NPL,4792813,8726948,9687843,13516276,10086695,9370783,14668999,11292394,11585830,7900756,9811691,8345360,13038094,7514003,7536397,6767506,5513530,7129349,4008970,3199122,2957500,3343755,2608887,2100401,1517773,2449577,2133274,2591288,5165737,5281160,4297921,3778071,2972982,3686690,2662757,3617517,5304041,4940931,3697098,5803967
Imp,NEPAL,ネパール,NPL,2103079,1997165,495438,345058,213998,126990,271753,266033,396088,291320,255975,381056,229551,280851,447906,330856,166851,216508,461878,490809,580849,3055746,1369898,785450,828507,818407,1116253,1037380,981273,1162681,1071699,838827,966098,1236717,1499790,1628314,1928018,1402899,1218418,1177060
Exp,BHUTAN,ブータン,BTN,138660,42480,71530,517219,321459,577698,499443,965007,506813,617940,1497701,906498,1222598,1363357,1394878,1160837,715688,637114,2567251,805480,703606,891755,881863,1260303,1117496,2348573,1449429,1049293,1690930,2079507,828829,1770196,1471369,600107,615696,1845552,1867965,1210554,1184116,975714
Imp,BHUTAN,ブータン,BTN,0,5348,2700,3319,2500,11660,12666,4039,458,0,588,82623,17630,29107,50333,8439,97175,17688,19348,19125,27830,4818,10119,4997,6774,381092,21892,21898,91844,144309,33524,273828,263347,179026,210301,67414,20049,112557,152289,105342
